{
  "accommodation": {
    "h1Select": "4",
    "h2Select": "4",
    "h3Select": "3",
    "h3OptionalSelect": "1",
    "h4Number": 500,
    "h4Select": "1",
    "h5Number": 1,
    "h6Select": "1",
    "h7Select": "1",
    "h8Select": "1",
    "h9Select": "1",
    "h10Radio": "1",
    "h11Select": "1"
  },
  "household": [
    {
      "p1Text": "John Smith",
      "p2Radio": "1",
      "p3Date": "1990-06-14T22:00:00.000Z",
      "p5Select": "2",
      "p6Text": "Ireland",
      "p7Select": "1",
      "p7Text": "Dublin, 10th st",
      "p8Select": "1",
      "p8Text": "",
      "p9Radio": "2",
      "p9OptionalNumber": null,
      "p9OptionalText": "",
      "languageCulture": {
        "p10CheckboxGroup": ["1"],
        "p10Text": "",
        "p11Select": "1",
        "p11Text": "",
        "p12Select": "7",
        "p12Text": "",
        "p13Number": 0,
        "p14Radio": "1",
        "p14Select": "4",
        "p15Radio": "2",
        "p15Text": "",
        "p15Select": "1"
      },
      "health": {
        "p16RadioA": "2",
        "p16RadioB": "2",
        "p16RadioC": "2",
        "p16RadioD": "2",
        "p16RadioE": "2",
        "p16RadioF": "2",
        "p16RadioG": "2",
        "p17RadioA": "2",
        "p17RadioB": "2",
        "p17RadioC": "2",
        "p17RadioD": "2",
        "p18Radio": "1"
      },
      "educationWork": {
        "p19Select": "3",
        "p20Select": "5",
        "p21Number": 20,
        "p22Radio": "2",
        "p22Number": null,
        "p24Radio": "2",
        "p24Number": null,
        "p25Select": "4",
        "p26Text": "Comp. Sci.",
        "p27Select": "4",
        "p27Text": "",
        "p29Select": null,
        "p30Textarea": "",
        "p30Text": null,
        "p32Textarea": "",
        "p34NameTextarea": "College of Dublin",
        "p34AddressTextarea": "Dublin, 2nd st",
        "p34Radio": null
      }
    },
    {
      "p1Text": "Mary Smith",
      "p2Radio": "2",
      "p3Date": "1990-11-12T23:00:00.000Z",
      "p5Select": "2",
      "p6Text": "Ireland",
      "p7Select": "1",
      "p7Text": "Dublin, 10th st",
      "p8Select": "1",
      "p8Text": "",
      "p9Radio": "2",
      "p9OptionalNumber": null,
      "p9OptionalText": "",
      "languageCulture": {
        "p10CheckboxGroup": ["1"],
        "p10Text": "",
        "p11Select": "1",
        "p11Text": "",
        "p12Select": "7",
        "p12Text": "",
        "p13Number": 0,
        "p14Radio": "1",
        "p14Select": "4",
        "p15Radio": "2",
        "p15Text": "",
        "p15Select": null
      },
      "health": {
        "p16RadioA": "2",
        "p16RadioB": "2",
        "p16RadioC": "2",
        "p16RadioD": "2",
        "p16RadioE": "2",
        "p16RadioF": "2",
        "p16RadioG": "2",
        "p17RadioA": "2",
        "p17RadioB": "2",
        "p17RadioC": "2",
        "p17RadioD": "2",
        "p18Radio": "1"
      },
      "educationWork": {
        "p19Select": "4",
        "p20Select": "7",
        "p21Number": 35,
        "p22Radio": "2",
        "p22Number": null,
        "p24Radio": "1",
        "p24Number": 21,
        "p25Select": "10",
        "p26Text": "Chemical eng.",
        "p27Select": "1",
        "p27Text": "",
        "p29Select": "1",
        "p30Textarea": "Pharma",
        "p30Text": null,
        "p32Textarea": "Pharma",
        "p34NameTextarea": "College of Dublin",
        "p34AddressTextarea": "Dublin, 2nd st",
        "p34Radio": "2"
      }
    }
  ],
  "relationships": {
    "relationshipsTable": [
      {
        "personOne": 0,
        "personTwo": 1,
        "relationship": "2"
      }
    ]
  }
}
