{
  "$schema": "../../node_modules/ng-packagr/ng-package.schema.json",
  "dest": "dist",
  "deleteDestPath": false,
  "lib": {
    "entryFile": "src/index.ts",
    "umdModuleIds": {
      "@lightweightform/storage": "lightweightform.storage",
      "@lightweightform/core": "lightweightform.core",
      "xml-js": "xmlJs"
    }
  },
  "allowedNonPeerDependencies": ["xml-js", "stream"]
}
