{
  "extends": "../../tslint.json",
  "rules": {
    "no-implicit-dependencies": false,
    "directive-selector": [true, "attribute", "demo", "camelCase"],
    "component-selector": [true, "element", "demo", "kebab-case"]
  }
}
